('.\\BIN\\build.exe',
 True,
 False,
 False,
 'D:\\escritorio\\programacion\\lodelapelu\\DEVTOOLS\\py-venv\\lib\\site-packages\\PyInstaller\\bootloader\\images\\icon-console.ico',
 None,
 False,
 False,
 '<?xml version="1.0" encoding="UTF-8" standalone="yes"?><assembly xmlns="urn:schemas-microsoft-com:asm.v1" manifestVersion="1.0"><assemblyIdentity type="win32" name="build" processorArchitecture="amd64" version="1.0.0.0"/><trustInfo xmlns="urn:schemas-microsoft-com:asm.v3"><security><requestedPrivileges><requestedExecutionLevel level="asInvoker" uiAccess="false"/></requestedPrivileges></security></trustInfo><dependency><dependentAssembly><assemblyIdentity type="win32" name="Microsoft.Windows.Common-Controls" language="*" processorArchitecture="*" version="6.0.0.0" publicKeyToken="6595b64144ccf1df"/></dependentAssembly></dependency><compatibility xmlns="urn:schemas-microsoft-com:compatibility.v1"><application><supportedOS Id="{e2011457-1546-43c5-a5fe-008deee3d3f0}"/><supportedOS Id="{35138b9a-5d96-4fbd-8e2d-a2440225f93a}"/><supportedOS Id="{4a2f28e3-53b9-4441-ba9c-d69d4a4a6e38}"/><supportedOS Id="{1f676c76-80e1-4239-95bb-83d0f6d0da78}"/><supportedOS Id="{8e0f7a12-bfb3-4fe8-b9a5-48fd50a15a9a}"/></application></compatibility><application xmlns="urn:schemas-microsoft-com:asm.v3"><windowsSettings><longPathAware xmlns="http://schemas.microsoft.com/SMI/2016/WindowsSettings">true</longPathAware></windowsSettings></application></assembly>',
 True,
 True,
 False,
 None,
 None,
 None,
 '.\\build_tmp\\build\\build.pkg',
 [('PYZ-00.pyz', '.\\build_tmp\\build\\PYZ-00.pyz', 'PYZ'),
  ('struct', '.\\build_tmp\\build\\localpycos\\struct.pyo', 'PYMODULE'),
  ('pyimod01_os_path',
   'D:\\escritorio\\programacion\\lodelapelu\\DEVTOOLS\\py-venv\\lib\\site-packages\\PyInstaller\\loader\\pyimod01_os_path.pyc',
   'PYMODULE'),
  ('pyimod02_archive',
   'D:\\escritorio\\programacion\\lodelapelu\\DEVTOOLS\\py-venv\\lib\\site-packages\\PyInstaller\\loader\\pyimod02_archive.pyc',
   'PYMODULE'),
  ('pyimod03_importers',
   'D:\\escritorio\\programacion\\lodelapelu\\DEVTOOLS\\py-venv\\lib\\site-packages\\PyInstaller\\loader\\pyimod03_importers.pyc',
   'PYMODULE'),
  ('pyimod04_ctypes',
   'D:\\escritorio\\programacion\\lodelapelu\\DEVTOOLS\\py-venv\\lib\\site-packages\\PyInstaller\\loader\\pyimod04_ctypes.pyc',
   'PYMODULE'),
  ('pyiboot01_bootstrap',
   'D:\\escritorio\\programacion\\lodelapelu\\DEVTOOLS\\py-venv\\lib\\site-packages\\PyInstaller\\loader\\pyiboot01_bootstrap.py',
   'PYSOURCE'),
  ('pyi_rth_subprocess',
   'D:\\escritorio\\programacion\\lodelapelu\\DEVTOOLS\\py-venv\\Lib\\site-packages\\PyInstaller\\hooks\\rthooks\\pyi_rth_subprocess.py',
   'PYSOURCE'),
  ('pyi_rth_inspect',
   'D:\\escritorio\\programacion\\lodelapelu\\DEVTOOLS\\py-venv\\Lib\\site-packages\\PyInstaller\\hooks\\rthooks\\pyi_rth_inspect.py',
   'PYSOURCE'),
  ('pyi_rth_pkgutil',
   'D:\\escritorio\\programacion\\lodelapelu\\DEVTOOLS\\py-venv\\Lib\\site-packages\\PyInstaller\\hooks\\rthooks\\pyi_rth_pkgutil.py',
   'PYSOURCE'),
  ('pyi_rth_multiprocessing',
   'D:\\escritorio\\programacion\\lodelapelu\\DEVTOOLS\\py-venv\\Lib\\site-packages\\PyInstaller\\hooks\\rthooks\\pyi_rth_multiprocessing.py',
   'PYSOURCE'),
  ('build',
   'D:\\escritorio\\programacion\\lodelapelu\\DEVTOOLS\\SRC\\build.py',
   'PYSOURCE'),
  ('python310.dll',
   'C:\\Program '
   'Files\\WindowsApps\\PythonSoftwareFoundation.Python.3.10_3.10.1264.0_x64__qbz5n2kfra8p0\\python310.dll',
   'BINARY'),
  ('VCRUNTIME140.dll',
   'C:\\Program '
   'Files\\WindowsApps\\PythonSoftwareFoundation.Python.3.10_3.10.1264.0_x64__qbz5n2kfra8p0\\VCRUNTIME140.dll',
   'BINARY'),
  ('_multiprocessing',
   'C:\\Program '
   'Files\\WindowsApps\\PythonSoftwareFoundation.Python.3.10_3.10.1264.0_x64__qbz5n2kfra8p0\\DLLs\\_multiprocessing.pyd',
   'EXTENSION'),
  ('_decimal',
   'C:\\Program '
   'Files\\WindowsApps\\PythonSoftwareFoundation.Python.3.10_3.10.1264.0_x64__qbz5n2kfra8p0\\DLLs\\_decimal.pyd',
   'EXTENSION'),
  ('_socket',
   'C:\\Program '
   'Files\\WindowsApps\\PythonSoftwareFoundation.Python.3.10_3.10.1264.0_x64__qbz5n2kfra8p0\\DLLs\\_socket.pyd',
   'EXTENSION'),
  ('select',
   'C:\\Program '
   'Files\\WindowsApps\\PythonSoftwareFoundation.Python.3.10_3.10.1264.0_x64__qbz5n2kfra8p0\\DLLs\\select.pyd',
   'EXTENSION'),
  ('_overlapped',
   'C:\\Program '
   'Files\\WindowsApps\\PythonSoftwareFoundation.Python.3.10_3.10.1264.0_x64__qbz5n2kfra8p0\\DLLs\\_overlapped.pyd',
   'EXTENSION'),
  ('_ssl',
   'C:\\Program '
   'Files\\WindowsApps\\PythonSoftwareFoundation.Python.3.10_3.10.1264.0_x64__qbz5n2kfra8p0\\DLLs\\_ssl.pyd',
   'EXTENSION'),
  ('_queue',
   'C:\\Program '
   'Files\\WindowsApps\\PythonSoftwareFoundation.Python.3.10_3.10.1264.0_x64__qbz5n2kfra8p0\\DLLs\\_queue.pyd',
   'EXTENSION'),
  ('pyexpat',
   'C:\\Program '
   'Files\\WindowsApps\\PythonSoftwareFoundation.Python.3.10_3.10.1264.0_x64__qbz5n2kfra8p0\\DLLs\\pyexpat.pyd',
   'EXTENSION'),
  ('unicodedata',
   'C:\\Program '
   'Files\\WindowsApps\\PythonSoftwareFoundation.Python.3.10_3.10.1264.0_x64__qbz5n2kfra8p0\\DLLs\\unicodedata.pyd',
   'EXTENSION'),
  ('_asyncio',
   'C:\\Program '
   'Files\\WindowsApps\\PythonSoftwareFoundation.Python.3.10_3.10.1264.0_x64__qbz5n2kfra8p0\\DLLs\\_asyncio.pyd',
   'EXTENSION'),
  ('_hashlib',
   'C:\\Program '
   'Files\\WindowsApps\\PythonSoftwareFoundation.Python.3.10_3.10.1264.0_x64__qbz5n2kfra8p0\\DLLs\\_hashlib.pyd',
   'EXTENSION'),
  ('_lzma',
   'C:\\Program '
   'Files\\WindowsApps\\PythonSoftwareFoundation.Python.3.10_3.10.1264.0_x64__qbz5n2kfra8p0\\DLLs\\_lzma.pyd',
   'EXTENSION'),
  ('_bz2',
   'C:\\Program '
   'Files\\WindowsApps\\PythonSoftwareFoundation.Python.3.10_3.10.1264.0_x64__qbz5n2kfra8p0\\DLLs\\_bz2.pyd',
   'EXTENSION'),
  ('_ctypes',
   'C:\\Program '
   'Files\\WindowsApps\\PythonSoftwareFoundation.Python.3.10_3.10.1264.0_x64__qbz5n2kfra8p0\\DLLs\\_ctypes.pyd',
   'EXTENSION'),
  ('libssl-1_1.dll',
   'C:\\Program '
   'Files\\WindowsApps\\PythonSoftwareFoundation.Python.3.10_3.10.1264.0_x64__qbz5n2kfra8p0\\DLLs\\libssl-1_1.dll',
   'BINARY'),
  ('libcrypto-1_1.dll',
   'C:\\Program '
   'Files\\WindowsApps\\PythonSoftwareFoundation.Python.3.10_3.10.1264.0_x64__qbz5n2kfra8p0\\DLLs\\libcrypto-1_1.dll',
   'BINARY'),
  ('libffi-7.dll',
   'C:\\Program '
   'Files\\WindowsApps\\PythonSoftwareFoundation.Python.3.10_3.10.1264.0_x64__qbz5n2kfra8p0\\DLLs\\libffi-7.dll',
   'BINARY'),
  ('base_library.zip', '.\\build_tmp\\build\\base_library.zip', 'DATA')],
 [],
 False,
 False,
 1651863725,
 [('run.exe',
   'D:\\escritorio\\programacion\\lodelapelu\\DEVTOOLS\\py-venv\\lib\\site-packages\\PyInstaller\\bootloader\\Windows-64bit\\run.exe',
   'EXECUTABLE')])
