('.\\build_tmp\\build\\build.pkg',
 {'BINARY': 1,
  'DATA': 1,
  'EXECUTABLE': 1,
  'EXTENSION': 1,
  'PYMODULE': 1,
  'PYSOURCE': 1,
  'PYZ': 0,
  'SPLASH': 1},
 [('PYZ-00.pyz', '.\\build_tmp\\build\\PYZ-00.pyz', 'PYZ'),
  ('struct', '.\\build_tmp\\build\\localpycos\\struct.pyo', 'PYMODULE'),
  ('pyimod01_os_path',
   'D:\\escritorio\\programacion\\lodelapelu\\DEVTOOLS\\py-venv\\lib\\site-packages\\PyInstaller\\loader\\pyimod01_os_path.pyc',
   'PYMODULE'),
  ('pyimod02_archive',
   'D:\\escritorio\\programacion\\lodelapelu\\DEVTOOLS\\py-venv\\lib\\site-packages\\PyInstaller\\loader\\pyimod02_archive.pyc',
   'PYMODULE'),
  ('pyimod03_importers',
   'D:\\escritorio\\programacion\\lodelapelu\\DEVTOOLS\\py-venv\\lib\\site-packages\\PyInstaller\\loader\\pyimod03_importers.pyc',
   'PYMODULE'),
  ('pyimod04_ctypes',
   'D:\\escritorio\\programacion\\lodelapelu\\DEVTOOLS\\py-venv\\lib\\site-packages\\PyInstaller\\loader\\pyimod04_ctypes.pyc',
   'PYMODULE'),
  ('pyiboot01_bootstrap',
   'D:\\escritorio\\programacion\\lodelapelu\\DEVTOOLS\\py-venv\\lib\\site-packages\\PyInstaller\\loader\\pyiboot01_bootstrap.py',
   'PYSOURCE'),
  ('pyi_rth_subprocess',
   'D:\\escritorio\\programacion\\lodelapelu\\DEVTOOLS\\py-venv\\Lib\\site-packages\\PyInstaller\\hooks\\rthooks\\pyi_rth_subprocess.py',
   'PYSOURCE'),
  ('pyi_rth_inspect',
   'D:\\escritorio\\programacion\\lodelapelu\\DEVTOOLS\\py-venv\\Lib\\site-packages\\PyInstaller\\hooks\\rthooks\\pyi_rth_inspect.py',
   'PYSOURCE'),
  ('pyi_rth_pkgutil',
   'D:\\escritorio\\programacion\\lodelapelu\\DEVTOOLS\\py-venv\\Lib\\site-packages\\PyInstaller\\hooks\\rthooks\\pyi_rth_pkgutil.py',
   'PYSOURCE'),
  ('pyi_rth_multiprocessing',
   'D:\\escritorio\\programacion\\lodelapelu\\DEVTOOLS\\py-venv\\Lib\\site-packages\\PyInstaller\\hooks\\rthooks\\pyi_rth_multiprocessing.py',
   'PYSOURCE'),
  ('build',
   'D:\\escritorio\\programacion\\lodelapelu\\DEVTOOLS\\SRC\\build.py',
   'PYSOURCE'),
  ('python310.dll',
   'C:\\Program '
   'Files\\WindowsApps\\PythonSoftwareFoundation.Python.3.10_3.10.1264.0_x64__qbz5n2kfra8p0\\python310.dll',
   'BINARY'),
  ('VCRUNTIME140.dll',
   'C:\\Program '
   'Files\\WindowsApps\\PythonSoftwareFoundation.Python.3.10_3.10.1264.0_x64__qbz5n2kfra8p0\\VCRUNTIME140.dll',
   'BINARY'),
  ('_multiprocessing',
   'C:\\Program '
   'Files\\WindowsApps\\PythonSoftwareFoundation.Python.3.10_3.10.1264.0_x64__qbz5n2kfra8p0\\DLLs\\_multiprocessing.pyd',
   'EXTENSION'),
  ('_decimal',
   'C:\\Program '
   'Files\\WindowsApps\\PythonSoftwareFoundation.Python.3.10_3.10.1264.0_x64__qbz5n2kfra8p0\\DLLs\\_decimal.pyd',
   'EXTENSION'),
  ('_socket',
   'C:\\Program '
   'Files\\WindowsApps\\PythonSoftwareFoundation.Python.3.10_3.10.1264.0_x64__qbz5n2kfra8p0\\DLLs\\_socket.pyd',
   'EXTENSION'),
  ('select',
   'C:\\Program '
   'Files\\WindowsApps\\PythonSoftwareFoundation.Python.3.10_3.10.1264.0_x64__qbz5n2kfra8p0\\DLLs\\select.pyd',
   'EXTENSION'),
  ('_overlapped',
   'C:\\Program '
   'Files\\WindowsApps\\PythonSoftwareFoundation.Python.3.10_3.10.1264.0_x64__qbz5n2kfra8p0\\DLLs\\_overlapped.pyd',
   'EXTENSION'),
  ('_ssl',
   'C:\\Program '
   'Files\\WindowsApps\\PythonSoftwareFoundation.Python.3.10_3.10.1264.0_x64__qbz5n2kfra8p0\\DLLs\\_ssl.pyd',
   'EXTENSION'),
  ('_queue',
   'C:\\Program '
   'Files\\WindowsApps\\PythonSoftwareFoundation.Python.3.10_3.10.1264.0_x64__qbz5n2kfra8p0\\DLLs\\_queue.pyd',
   'EXTENSION'),
  ('pyexpat',
   'C:\\Program '
   'Files\\WindowsApps\\PythonSoftwareFoundation.Python.3.10_3.10.1264.0_x64__qbz5n2kfra8p0\\DLLs\\pyexpat.pyd',
   'EXTENSION'),
  ('unicodedata',
   'C:\\Program '
   'Files\\WindowsApps\\PythonSoftwareFoundation.Python.3.10_3.10.1264.0_x64__qbz5n2kfra8p0\\DLLs\\unicodedata.pyd',
   'EXTENSION'),
  ('_asyncio',
   'C:\\Program '
   'Files\\WindowsApps\\PythonSoftwareFoundation.Python.3.10_3.10.1264.0_x64__qbz5n2kfra8p0\\DLLs\\_asyncio.pyd',
   'EXTENSION'),
  ('_hashlib',
   'C:\\Program '
   'Files\\WindowsApps\\PythonSoftwareFoundation.Python.3.10_3.10.1264.0_x64__qbz5n2kfra8p0\\DLLs\\_hashlib.pyd',
   'EXTENSION'),
  ('_lzma',
   'C:\\Program '
   'Files\\WindowsApps\\PythonSoftwareFoundation.Python.3.10_3.10.1264.0_x64__qbz5n2kfra8p0\\DLLs\\_lzma.pyd',
   'EXTENSION'),
  ('_bz2',
   'C:\\Program '
   'Files\\WindowsApps\\PythonSoftwareFoundation.Python.3.10_3.10.1264.0_x64__qbz5n2kfra8p0\\DLLs\\_bz2.pyd',
   'EXTENSION'),
  ('_ctypes',
   'C:\\Program '
   'Files\\WindowsApps\\PythonSoftwareFoundation.Python.3.10_3.10.1264.0_x64__qbz5n2kfra8p0\\DLLs\\_ctypes.pyd',
   'EXTENSION'),
  ('libssl-1_1.dll',
   'C:\\Program '
   'Files\\WindowsApps\\PythonSoftwareFoundation.Python.3.10_3.10.1264.0_x64__qbz5n2kfra8p0\\DLLs\\libssl-1_1.dll',
   'BINARY'),
  ('libcrypto-1_1.dll',
   'C:\\Program '
   'Files\\WindowsApps\\PythonSoftwareFoundation.Python.3.10_3.10.1264.0_x64__qbz5n2kfra8p0\\DLLs\\libcrypto-1_1.dll',
   'BINARY'),
  ('libffi-7.dll',
   'C:\\Program '
   'Files\\WindowsApps\\PythonSoftwareFoundation.Python.3.10_3.10.1264.0_x64__qbz5n2kfra8p0\\DLLs\\libffi-7.dll',
   'BINARY'),
  ('base_library.zip', '.\\build_tmp\\build\\base_library.zip', 'DATA')],
 False,
 False,
 False,
 [],
 None,
 None,
 None)
